\relax 
\providecommand\hyper@newdestlabel[2]{}
\providecommand\HyperFirstAtBeginDocument{\AtBeginDocument}
\HyperFirstAtBeginDocument{\ifx\hyper@anchor\@undefined
\global\let\oldcontentsline\contentsline
\gdef\contentsline#1#2#3#4{\oldcontentsline{#1}{#2}{#3}}
\global\let\oldnewlabel\newlabel
\gdef\newlabel#1#2{\newlabelxx{#1}#2}
\gdef\newlabelxx#1#2#3#4#5#6{\oldnewlabel{#1}{{#2}{#3}}}
\AtEndDocument{\ifx\hyper@anchor\@undefined
\let\contentsline\oldcontentsline
\let\newlabel\oldnewlabel
\fi}
\fi}
\global\let\hyper@last\relax 
\gdef\HyperFirstAtBeginDocument#1{#1}
\providecommand\HyField@AuxAddToFields[1]{}
\providecommand\HyField@AuxAddToCoFields[2]{}
\bibstyle{dcu}
\citation{shangnan2021}
\citation{librarians_research_nodate}
\citation{librarians_research_nodate}
\citation{shangnan2021}
\citation{shangnan2021}
\providecommand\@newglossary[4]{}
\@newglossary{main}{glg}{gls}{glo}
\providecommand\@glsxtr@savepreloctag[2]{}
\providecommand \oddpage@label [2]{}
\providecommand\@glsorder[1]{}
\providecommand\@istfilename[1]{}
\@istfilename{report.ist}
\@glsorder{word}
\@writefile{toc}{\contentsline {section}{\numberline {1}Working Title}{1}{section.1}\protected@file@percent }
\newlabel{sec:title}{{1}{1}{Working Title}{section.1}{}}
\@writefile{toc}{\contentsline {section}{\numberline {2}Research Objectives}{1}{section.2}\protected@file@percent }
\newlabel{sec:obj}{{2}{1}{Research Objectives}{section.2}{}}
\citation{tensorflow}
\citation{qiskit}
\citation{nair2010}
\citation{nair2010}
\citation{refId0}
\citation{abraham1999evolution}
\citation{sheth2008evolution}
\citation{1922MeLuF.100....1M}
\citation{sandage1983}
\citation{vaucouleurs1959}
\citation{de2013third}
\citation{fukugita2007catalog}
\citation{graham2019}
\citation{hubble1926}
\citation{vaucouleurs1959}
\citation{graham2019}
\citation{graham2019}
\citation{nair2010}
\citation{nair2010}
\citation{abd2017}
\citation{ferrari2015morfometryka}
\citation{mirjalili2016sca}
\citation{inbarani2014supervised}
\citation{zhu2007wrapper}
\citation{nair2010}
\citation{galanti2019}
\citation{galanti2019}
\citation{xu2020}
\citation{xiao2021}
\citation{nair2010}
\citation{galanti2019}
\citation{becker2021}
\citation{khalifa2017}
\citation{galanti2019}
\citation{khalifa2017}
\citation{galanti2019}
\citation{dai2018}
\citation{he2016deep}
\citation{hubble1926}
\citation{dieleman2015rotation}
\citation{willett2013galaxy}
\citation{kim2016star}
\citation{noauthor_sdss_nodate}
\citation{Heymans_2012}
\citation{lecun2012efficient}
\citation{bottou1998online}
\citation{dieleman2015rotation}
\citation{chatfield2014return}
\citation{xu2020}
\citation{breiman1984classification}
\citation{breiman2001random}
\citation{zhang2015}
\citation{edwards2014astronomy}
\citation{dagade2015big}
\citation{prasad2014improving}
\citation{prasad2014improving}
\citation{prasad2014improving}
\citation{kwak2021}
\citation{kwak2021}
\citation{kwak2021}
\citation{li2007}
\citation{li2007}
\citation{xu2011quantum}
\citation{bai2008method}
\citation{etemad1997discriminant}
\citation{li2014fisher}
\citation{noauthor_graphite_nodate}
\citation{5356524}
\citation{noauthor_database_nodate}
\citation{noauthor_sklearn._nodate}
\citation{shangnan2021}
\citation{lagrange2015benchmarking}
\citation{5584447}
\citation{delgado2019cohen}
\citation{chatfield2014return}
\citation{sermanet2013overfeat}
\citation{jia2014caffe}
\citation{brigato2021tune}
\citation{bietti2019kernel}
\citation{barz2020deep}
\@writefile{toc}{\contentsline {section}{\numberline {3}Literature Review}{2}{section.3}\protected@file@percent }
\newlabel{sec:lit}{{3}{2}{Literature Review}{section.3}{}}
\newlabel{fn:precision}{{5}{8}{}{Hfootnote.5}{}}
\citation{1922MeLuF.100....1M}
\citation{1925MeLuF.106....1M}
\citation{shorten2019survey}
\citation{xu2020}
\citation{BUDA2018249}
\citation{BUDA2018249}
\citation{xiao2021}
\citation{perera2019learning}
\@writefile{toc}{\contentsline {section}{\numberline {4}Validity of Results}{9}{section.4}\protected@file@percent }
\newlabel{sec:val}{{4}{9}{Validity of Results}{section.4}{}}
\citation{shorten2019survey}
\citation{bietti2019kernel}
\citation{barz2020deep}
\citation{lagrange2015benchmarking}
\citation{brigato2021tune}
\citation{xiao2021}
\citation{kim2016star}
\citation{lecun2012efficient}
\citation{bottou1998online}
\citation{prasad2014improving}
\citation{prasad2014improving}
\citation{edwards2014astronomy}
\citation{edwards2014astronomy}
\citation{noauthor_sdss_nodate}
\citation{walmsley_mike_galaxy_2020}
\citation{Baillard_2011}
\citation{nair2010}
\@writefile{toc}{\contentsline {section}{\numberline {5}Proposed Sampling Strategy}{11}{section.5}\protected@file@percent }
\newlabel{sec:samp}{{5}{11}{Proposed Sampling Strategy}{section.5}{}}
\@writefile{toc}{\contentsline {section}{\numberline {6}Proposed Primary Research Methodology}{12}{section.6}\protected@file@percent }
\newlabel{sec:prim}{{6}{12}{Proposed Primary Research Methodology}{section.6}{}}
\@writefile{toc}{\contentsline {section}{\numberline {7}Proposed Time Frame}{12}{section.7}\protected@file@percent }
\newlabel{sec:time}{{7}{12}{Proposed Time Frame}{section.7}{}}
\@writefile{toc}{\contentsline {section}{Glossary}{13}{section*.1}\protected@file@percent }
\bibdata{report/report}
\bibcite{abd2017}{{1}{2017}{{Abd El~Aziz et~al.}}{{Abd El~Aziz, Selim and\ Xiong}}}
\bibcite{abraham1999evolution}{{2}{1999}{{Abraham et~al.}}{{Abraham, Merrifield, Ellis, Tanvir and\ Brinchmann}}}
\bibcite{bai2008method}{{3}{2008}{{Bai et~al.}}{{Bai, Zhang and\ Ye}}}
\bibcite{Baillard_2011}{{4}{2011}{{Baillard et~al.}}{{Baillard, Bertin, de~Lapparent, Fouqu{\'{e}}, Arnouts, Mellier, Pell{\'{o}}, Leborgne, Prugniel, Makarov, Makarova, McCracken, Bijaoui and\ Tasca}}}
\bibcite{barz2020deep}{{5}{2020}{{Barz and\ Denzler}}{{}}}
\bibcite{becker2021}{{6}{2021}{{Becker et~al.}}{{Becker, Vaccari, Prescott and\ Grobler}}}
\bibcite{bietti2019kernel}{{7}{2019}{{Bietti et~al.}}{{Bietti, Mialon, Chen and\ Mairal}}}
\bibcite{bottou1998online}{{8}{1998}{{Bottou et~al.}}{{}}}
\bibcite{breiman2001random}{{9}{2001}{{Breiman}}{{}}}
\bibcite{breiman1984classification}{{10}{1984}{{Breiman et~al.}}{{Breiman, Friedman, Stone and\ Olshen}}}
\bibcite{brigato2021tune}{{11}{2021}{{Brigato et~al.}}{{Brigato, Barz, Iocchi and\ Denzler}}}
\bibcite{BUDA2018249}{{12}{2018}{{Buda et~al.}}{{Buda, Maki and\ Mazurowski}}}
\bibcite{noauthor_database_nodate}{{13}{1994}{{Cambridge}}{{}}}
\bibcite{chatfield2014return}{{14}{2014}{{Chatfield et~al.}}{{Chatfield, Simonyan, Vedaldi and\ Zisserman}}}
\bibcite{dagade2015big}{{15}{2015}{{Dagade et~al.}}{{Dagade, Lagali, Avadhani and\ Kalekar}}}
\bibcite{dai2018}{{16}{2018}{{Dai and\ Tong}}{{}}}
\bibcite{de2013third}{{17}{2013}{{De~Vaucouleurs et~al.}}{{De~Vaucouleurs, de~Vaucouleurs, Harold~Jr, Buta, Paturel, Fouqu{\'e} et~al.}}}
\bibcite{delgado2019cohen}{{18}{2019}{{Delgado and\ Tibau}}{{}}}
\bibcite{dieleman2015rotation}{{19}{2015}{{Dieleman et~al.}}{{Dieleman, Willett and\ Dambre}}}
\bibcite{edwards2014astronomy}{{20}{2014}{{Edwards and\ Gaber}}{{}}}
\bibcite{noauthor_graphite_nodate}{{21}{n.d.}{{Elastic}}{{}}}
\bibcite{etemad1997discriminant}{{22}{1997}{{Etemad and\ Chellappa}}{{}}}
\bibcite{5356524}{{23}{2009}{{Fazl-Ersi and\ Tsotsos}}{{}}}
\bibcite{ferrari2015morfometryka}{{24}{2015}{{Ferrari et~al.}}{{Ferrari, de~Carvalho and\ Trevisan}}}
\bibcite{fukugita2007catalog}{{25}{2007}{{Fukugita et~al.}}{{Fukugita, Nakamura, Okamura, Yasuda, Barentine, Brinkmann, Gunn, Harvanek, Ichikawa, Lupton et~al.}}}
\bibcite{galanti2019}{{26}{2019}{{Galanti et~al.}}{{Galanti, John and\ Lee}}}
\bibcite{graham2019}{{27}{2019}{{Graham}}{{}}}
\bibcite{he2016deep}{{28}{2016}{{He et~al.}}{{He, Zhang, Ren and\ Sun}}}
\bibcite{Heymans_2012}{{29}{2012}{{Heymans et~al.}}{{Heymans, Waerbeke, Miller, Erben, Hildebrandt, Hoekstra, Kitching, Mellier, Simon, Bonnett, Coupon, Fu, Harnois-D{\'{e}}raps, Hudson, Kilbinger, Kuijken, Rowe, Schrabback, Semboloni, van Uitert, Vafaei and\ Velander}}}
\bibcite{hubble1926}{{30}{1926}{{Hubble}}{{}}}
\bibcite{qiskit}{{31}{n.d.}{{IBM}}{{}}}
\bibcite{inbarani2014supervised}{{32}{2014}{{Inbarani et~al.}}{{Inbarani, Azar and\ Jothi}}}
\bibcite{jia2014caffe}{{33}{2014}{{Jia et~al.}}{{Jia, Shelhamer, Donahue, Karayev, Long, Girshick, Guadarrama and\ Darrell}}}
\bibcite{khalifa2017}{{34}{2017}{{Khalifa et~al.}}{{Khalifa, Taha, Hassanien and\ Selim}}}
\bibcite{kim2016star}{{35}{2016}{{Kim and\ Brunner}}{{}}}
\bibcite{kwak2021}{{36}{2021}{{Kwak et~al.}}{{Kwak, Yun, Jung and\ Kim}}}
\bibcite{lagrange2015benchmarking}{{37}{2015}{{Lagrange et~al.}}{{Lagrange, Le~Saux, Beaupere, Boulch, Chan-Hon-Tong, Herbin, Randrianarivo and\ Ferecatu}}}
\bibcite{lecun2012efficient}{{38}{2012}{{LeCun et~al.}}{{LeCun, Bottou, Orr and\ M{\"u}ller}}}
\bibcite{li2014fisher}{{39}{2014}{{Li and\ Wang}}{{}}}
\bibcite{li2007}{{40}{2007}{{Li and\ Li}}{{}}}
\bibcite{1922MeLuF.100....1M}{{41}{1922}{{Malmquist}}{{}}}
\bibcite{1925MeLuF.106....1M}{{42}{1925}{{Malmquist}}{{}}}
\bibcite{mirjalili2016sca}{{43}{2016}{{Mirjalili}}{{}}}
\bibcite{nair2010}{{44}{2010}{{Nair and\ Abraham}}{{}}}
\bibcite{perera2019learning}{{45}{2019}{{Perera and\ Patel}}{{}}}
\bibcite{refId0}{{46}{2020}{{Planck Collaboration}}{{}}}
\bibcite{prasad2014improving}{{47}{2014}{{Prasad et~al.}}{{Prasad, Nagesh and\ Deepthi}}}
\bibcite{sandage1983}{{48}{1983}{{Sandage and\ Tammann}}{{}}}
\bibcite{noauthor_sdss_nodate}{{49}{n.d.}{{SDSS}}{{}}}
\bibcite{sermanet2013overfeat}{{50}{2013}{{Sermanet et~al.}}{{Sermanet, Eigen, Zhang, Mathieu, Fergus and\ LeCun}}}
\bibcite{shangnan2021}{{51}{2021}{{Shangnan}}{{}}}
\bibcite{sheth2008evolution}{{52}{2008}{{Sheth et~al.}}{{Sheth, Elmegreen, Elmegreen, Capak, Abraham, Athanassoula, Ellis, Mobasher, Salvato, Schinnerer et~al.}}}
\bibcite{shorten2019survey}{{53}{2019}{{Shorten and\ Khoshgoftaar}}{{}}}
\bibcite{librarians_research_nodate}{{54}{n.d.}{{S.H.U.}}{{}}}
\bibcite{noauthor_sklearn._nodate}{{55}{n.d.}{{sklearn}}{{}}}
\bibcite{tensorflow}{{56}{n.d.}{{tensorflow quantum}}{{}}}
\bibcite{vaucouleurs1959}{{57}{1959}{{Vaucouleurs}}{{}}}
\bibcite{5584447}{{58}{2010}{{Vieira et~al.}}{{Vieira, Kaymak and\ Sousa}}}
\bibcite{walmsley_mike_galaxy_2020}{{59}{2020}{{{Walmsley, Mike} et~al.}}{{{Walmsley, Mike}, {Lintott, Chris}, {Tobias, Geron}, {Kruk, Sandor J}, {Krawczyk, Coleman}, {Willett, Kyle}, {Bamford, Steven}, {Kelvin, Lee S}, {Fortson, Lucy}, {Gal, Yarin}, {Keel, William}, {Masters, Karen}, {Mehta, Vihang}, {Simmons, Brooke}, {Smethurst, Rebecca J}, {Smith, Lewis}, {Baeten, Elisabeth M L} and\ {Macmillan, Christine}}}}
\bibcite{willett2013galaxy}{{60}{2013}{{Willett et~al.}}{{Willett, Lintott, Bamford, Masters, Simmons, Casteels, Edmondson, Fortson, Kaviraj, Keel et~al.}}}
\bibcite{xiao2021}{{61}{2021}{{Xiao et~al.}}{{Xiao, Zhang, Shen, Wu and\ Zhang}}}
\bibcite{xu2020}{{62}{2020}{{Xu et~al.}}{{Xu, Noy, Lin, Qian, Li and\ Jin}}}
\bibcite{xu2011quantum}{{63}{2011}{{Xu et~al.}}{{Xu, Zhang and\ Gai}}}
\bibcite{zhang2015}{{64}{2015}{{Zhang and\ Zhao}}{{}}}
\bibcite{zhu2007wrapper}{{65}{2007}{{Zhu et~al.}}{{Zhu, Ong and\ Dash}}}
\gdef \@abspage@last{17}
