\BOOKMARK [1][-]{section.1}{\376\377\000W\000o\000r\000k\000i\000n\000g\000\040\000T\000i\000t\000l\000e}{}% 1
\BOOKMARK [1][-]{section.2}{\376\377\000R\000e\000s\000e\000a\000r\000c\000h\000\040\000O\000b\000j\000e\000c\000t\000i\000v\000e\000s}{}% 2
\BOOKMARK [1][-]{section.3}{\376\377\000L\000i\000t\000e\000r\000a\000t\000u\000r\000e\000\040\000R\000e\000v\000i\000e\000w}{}% 3
\BOOKMARK [1][-]{section.4}{\376\377\000V\000a\000l\000i\000d\000i\000t\000y\000\040\000o\000f\000\040\000R\000e\000s\000u\000l\000t\000s}{}% 4
\BOOKMARK [1][-]{section.5}{\376\377\000P\000r\000o\000p\000o\000s\000e\000d\000\040\000S\000a\000m\000p\000l\000i\000n\000g\000\040\000S\000t\000r\000a\000t\000e\000g\000y}{}% 5
\BOOKMARK [1][-]{section.6}{\376\377\000P\000r\000o\000p\000o\000s\000e\000d\000\040\000P\000r\000i\000m\000a\000r\000y\000\040\000R\000e\000s\000e\000a\000r\000c\000h\000\040\000M\000e\000t\000h\000o\000d\000o\000l\000o\000g\000y}{}% 6
\BOOKMARK [1][-]{section.7}{\376\377\000P\000r\000o\000p\000o\000s\000e\000d\000\040\000T\000i\000m\000e\000\040\000F\000r\000a\000m\000e}{}% 7
\BOOKMARK [1][-]{section*.1}{\376\377\000G\000l\000o\000s\000s\000a\000r\000y}{}% 8
