\relax 
\providecommand\hyper@newdestlabel[2]{}
\providecommand\HyperFirstAtBeginDocument{\AtBeginDocument}
\HyperFirstAtBeginDocument{\ifx\hyper@anchor\@undefined
\global\let\oldcontentsline\contentsline
\gdef\contentsline#1#2#3#4{\oldcontentsline{#1}{#2}{#3}}
\global\let\oldnewlabel\newlabel
\gdef\newlabel#1#2{\newlabelxx{#1}#2}
\gdef\newlabelxx#1#2#3#4#5#6{\oldnewlabel{#1}{{#2}{#3}}}
\AtEndDocument{\ifx\hyper@anchor\@undefined
\let\contentsline\oldcontentsline
\let\newlabel\oldnewlabel
\fi}
\fi}
\global\let\hyper@last\relax 
\gdef\HyperFirstAtBeginDocument#1{#1}
\providecommand\HyField@AuxAddToFields[1]{}
\providecommand\HyField@AuxAddToCoFields[2]{}
\bibstyle{dcu}
\citation{shangnan2021}
\citation{tensorflow}
\citation{qiskit}
\citation{shangnan2021}
\providecommand \oddpage@label [2]{}
\@writefile{toc}{\contentsline {section}{\numberline {1}Title}{1}{section.1}\protected@file@percent }
\newlabel{sec:title}{{1}{1}{Title}{section.1}{}}
\@writefile{toc}{\contentsline {section}{\numberline {2}Problem Definition}{1}{section.2}\protected@file@percent }
\newlabel{sec:prob}{{2}{1}{Problem Definition}{section.2}{}}
\@writefile{toc}{\contentsline {subsection}{\numberline {2.1}Problem Identification}{1}{subsection.2.1}\protected@file@percent }
\@writefile{toc}{\contentsline {subsection}{\numberline {2.2}Problem Clarification}{1}{subsection.2.2}\protected@file@percent }
\citation{nair2010}
\@writefile{toc}{\contentsline {subsection}{\numberline {2.3}Problem Formulation}{2}{subsection.2.3}\protected@file@percent }
\citation{nair2010}
\citation{nair2010}
\citation{sandage1983}
\citation{vaucouleurs1959}
\citation{de2013third}
\citation{fukugita2007catalog}
\citation{nair2010}
\citation{galanti2019}
\citation{galanti2019}
\citation{xu2020}
\citation{xiao2021}
\citation{galanti2019}
\citation{becker2021}
\citation{galanti2019}
\citation{zhang2015}
\citation{kwak2021}
\citation{kwak2021}
\citation{shangnan2021}
\@writefile{toc}{\contentsline {subsection}{\numberline {2.4}Hypotheses Setting}{3}{subsection.2.4}\protected@file@percent }
\@writefile{toc}{\contentsline {section}{\numberline {3}Literature Review}{3}{section.3}\protected@file@percent }
\newlabel{sec:lit}{{3}{3}{Literature Review}{section.3}{}}
\bibdata{report/report}
\bibcite{becker2021}{{1}{2021}{{Becker et~al.}}{{Becker, Vaccari, Prescott and\ Grobler}}}
\bibcite{de2013third}{{2}{2013}{{De~Vaucouleurs et~al.}}{{De~Vaucouleurs, de~Vaucouleurs, Harold~Jr, Buta, Paturel, Fouqu{\'e} et~al.}}}
\bibcite{fukugita2007catalog}{{3}{2007}{{Fukugita et~al.}}{{Fukugita, Nakamura, Okamura, Yasuda, Barentine, Brinkmann, Gunn, Harvanek, Ichikawa, Lupton et~al.}}}
\bibcite{galanti2019}{{4}{2019}{{Galanti et~al.}}{{Galanti, John and\ Lee}}}
\bibcite{qiskit}{{5}{n.d.}{{IBM}}{{}}}
\bibcite{kwak2021}{{6}{2021}{{Kwak et~al.}}{{Kwak, Yun, Jung and\ Kim}}}
\bibcite{nair2010}{{7}{2010}{{Nair and\ Abraham}}{{}}}
\bibcite{sandage1983}{{8}{1983}{{Sandage and\ Tammann}}{{}}}
\bibcite{shangnan2021}{{9}{2021}{{Shangnan}}{{}}}
\bibcite{tensorflow}{{10}{n.d.}{{tensorflow quantum}}{{}}}
\bibcite{vaucouleurs1959}{{11}{1959}{{Vaucouleurs}}{{}}}
\bibcite{xiao2021}{{12}{2021}{{Xiao et~al.}}{{Xiao, Zhang, Shen, Wu and\ Zhang}}}
\bibcite{xu2020}{{13}{2020}{{Xu et~al.}}{{Xu, Noy, Lin, Qian, Li and\ Jin}}}
\bibcite{zhang2015}{{14}{2015}{{Zhang and\ Zhao}}{{}}}
\gdef \@abspage@last{6}
